<svg xmlns="http://www.w3.org/2000/svg" width="33.527" height="33.527" viewBox="0 0 33.527 33.527">
  <g id="Group_1538" data-name="Group 1538" transform="translate(-1402.782 -3026.473)">
    <g id="Group_1405" data-name="Group 1405" transform="translate(749.618 1955.23)">
      <path id="Path_11325" data-name="Path 11325" d="M665.284,1125.036a3.231,3.231,0,0,1-4.569,0l-4.568-4.568a3.235,3.235,0,0,1,0-4.569l10.395-10.394a3.234,3.234,0,0,1,4.569,0l3.441,3.441-1.545,1.545,1.089,1.088,1.545-1.545h0l1.089-1.088-4.53-4.53a4.77,4.77,0,0,0-6.746,0l-10.394,10.394a4.776,4.776,0,0,0,0,6.746l4.568,4.568a4.77,4.77,0,0,0,6.746,0l4.1-4.1-1.089-1.088Z" transform="translate(0 -23.252)" fill="#fff" stroke="#fff" stroke-width="1"/>
      <path id="Path_11326" data-name="Path 11326" d="M713.64,1077.706l-4.568-4.568a4.775,4.775,0,0,0-6.746,0L698.464,1077l1.088,1.088,3.862-3.862a3.235,3.235,0,0,1,4.569,0l4.568,4.568a3.231,3.231,0,0,1,0,4.569l-10.394,10.394a3.231,3.231,0,0,1-4.569,0l-2.945-2.945,1.784-1.784-1.088-1.088-2.873,2.872,1.089,1.089h0l2.945,2.945a4.77,4.77,0,0,0,6.746,0l10.394-10.395a4.77,4.77,0,0,0,0-6.746Z" transform="translate(-28.847 0)" fill="#fff" stroke="#fff" stroke-width="1"/>
    </g>
  </g>
</svg>
